{
    "content": [
        {
            "id": 88,
            "title": "What classes can you teach?",
            "type": "MUTIPLECHOICE",
            "choice": "CS,CE,IS,others"
        },
        {
            "id": 123,
            "title": "Are you allergic to pollen?",
            "type": "TRUEFALSE",
            "choice": "1.no2.yes"
        },
        {
            "id": 124,
            "title": "What is your education level?",
            "type": "MUTIPLECHOICE",
            "choice": "BS/BA,MS/MA,PhD,others"
        },
        {
            "id": 127,
            "title": "What is best way to contact you?",
            "type": "SHORTANSWER",
            "choice": ""
        },
        {
            "id": 130,
            "title": "test question 3",
            "type": "SHORTANSWER",
            "choice": ""
        },
        {
            "id": 136,
            "title": "kk",
            "type": "SHORTANSWER",
            "choice": ""
        },
        {
            "id": 137,
            "title": "Do you have pet(s)?",
            "type": "TRUEFALSE",
            "choice": ""
        },
        {
            "id": 139,
            "title": "test for fun",
            "type": "MINMAX",
            "choice": ""
        },
        {
            "id": 143,
            "title": "TESTNOREASON",
            "type": "MUTIPLECHOICE",
            "choice": ""
        },
        {
            "id": 144,
            "title": "hello",
            "type": "TRUEFALSE",
            "choice": ""
        }
    ],
    "pageable": {
        "sort": {
            "sorted": false,
            "unsorted": true,
            "empty": true
        },
        "pageSize": 10,
        "pageNumber": 0,
        "offset": 0,
        "paged": true,
        "unpaged": false
    },
    "totalPages": 2,
    "totalElements": 11,
    "last": false,
    "first": true,
    "sort": {
        "sorted": false,
        "unsorted": true,
        "empty": true
    },
    "numberOfElements": 10,
    "size": 10,
    "number": 0,
    "empty": false
}