{
    "content": [
        {
            "id": 3,
            "popularity": 9,
            "icon": "img_url",
            "serviceCategoryName": "Pets",
            "services": [
                {
                    "id": 678,
                    "serviceName": "Dog Groomers",
                    "popularity": 10,
                    "thumbnail": "https://picsum.photos/300/200",
                    "questions": []
                }
            ]
        },
        {
            "id": 4,
            "popularity": 8,
            "icon": "img_url",
            "serviceCategoryName": "Wellness",
            "services": [
                {
                    "id": 543,
                    "serviceName": "Personal Training",
                    "popularity": 8,
                    "thumbnail": "https://picsum.photos/300/200",
                    "questions": []
                }
            ]
        },
        {
            "id": 5,
            "popularity": 7,
            "icon": "img_url",
            "serviceCategoryName": "Business",
            "services": [
                {
                    "id": 567,
                    "serviceName": "Makeup Artists",
                    "popularity": 9,
                    "thumbnail": "https://picsum.photos/300/200",
                    "questions": []
                }
            ]
        },
        {
            "id": 6,
            "popularity": 6,
            "icon": "img_url",
            "serviceCategoryName": "Events",
            "services": [
                {
                    "id": 234,
                    "serviceName": "Exterior Painters",
                    "popularity": 3,
                    "thumbnail": "https://picsum.photos/300/200",
                    "questions": []
                }
            ]
        },
        {
            "id": 7,
            "popularity": 5,
            "icon": "img_url",
            "serviceCategoryName": "Crafts",
            "services": [
                {
                    "id": 345,
                    "serviceName": "Handymen",
                    "popularity": 5,
                    "thumbnail": "https://picsum.photos/300/200",
                    "questions": []
                }
            ]
        }
    ],
    "pageable": {
        "sort": {
            "sorted": false,
            "unsorted": true,
            "empty": true
        },
        "pageSize": 5,
        "pageNumber": 0,
        "offset": 0,
        "paged": true,
        "unpaged": false
    },
    "totalPages": 2,
    "totalElements": 10,
    "last": false,
    "first": true,
    "sort": {
        "sorted": false,
        "unsorted": true,
        "empty": true
    },
    "numberOfElements": 5,
    "size": 5,
    "number": 0,
    "empty": false
}